Introdução ao R para Ecólogos
…
# .blue[**Valores Fora da Amplitude de Variação com o Pacote assertive e summarise()**]

```r
tadpoles_raw  %>%  
  select(`Total Length (mm)`) %>% 
  drop_na() %>% 
  filter(`Total Length (mm)` < 2500) %>% 
  summarise(assert_all_are_in_closed_range(`Total Length (mm)`,
                                           lower = 5, upper = 100))
```

```
## # A tibble: 3,055 x 1
##    `assert_all_are_in_closed_range(...)`
##                                    <dbl>
##  1                                  37.6
##  2                                  20.1
##  3                                  18.9
##  4                                  35.5
##  5                                  25.6
##  6                                  25.8
##  7                                  13.2
##  8                                  25.9
##  9                                  26.4
## 10                                  26.4
## # … with 3,045 more rows
```
…
